SAS and R - SAS and R comparisons
…
is.data.frame(lfs_2023)

[1] TRUE

lfs_2023$WAGES <- rnorm(nrow(lfs_2023), 100, 8) # create a variable by name in a dataframe
lfs_2023$BENEFITS <- rexp(nrow(lfs_2023), 1/25)
lfs_2023t <- tibble::as_tibble(lfs_2023) # convert our dataframe to the enhance dataframe type tibble
lfs_2023t

# A tibble: 108,982 × 62
   REC_NUM SURVYEAR SURVMNTH LFSSTAT  PROV   CMA AGE_12 AGE_6   SEX MARSTAT
     <int>    <int>    <int>   <int> <int> <int>  <int> <int> <int>   <int>
 1       1     2023        9       4    48     7     10    NA     2       1
 2       2     2023        9       1    13     0     10    NA     1       1
 3       3     2023        9       4    24     0     12    NA     2       2
 4       4     2023        9       1    47     0      7    NA     1       1
 5       5     2023        9       1    46     6      9    NA     1       6
 6       6     2023        9       4    35     3      2     4     2       2
 7       7     2023        9       4    24     0     12    NA     2       1
 8       8     2023        9       1    11     0      6    NA     1       1
 9       9     2023        9       4    35     0     12    NA     1       1
10      10     2023        9       1    24     0      7    NA     1       5
# ℹ 108,972 more rows
# ℹ 52 more variables: EDUC <int>, MJH <int>, EVERWORK <int>, FTPTLAST <int>,
#   COWMAIN <int>, IMMIG <int>, NAICS_21 <int>, NOC_10 <int>, NOC_43 <int>,
#   YABSENT <int>, WKSAWAY <int>, PAYAWAY <int>, UHRSMAIN <int>,
#   AHRSMAIN <int>, FTPTMAIN <int>, UTOTHRS <int>, ATOTHRS <int>,
#   HRSAWAY <int>, YAWAY <int>, PAIDOT <int>, UNPAIDOT <int>, XTRAHRS <int>,
#   WHYPT <int>, TENURE <int>, PREVTEN <int>, HRLYEARN <int>, UNION <int>, …
…
# bloc 1: drop and rename variables
## drop 
file_var_analysis <- file_var_analysis %>% select(-COWMAIN)
## rename the variable weight to fweight
file_var_analysis <- file_var_analysis %>% rename(FWEIGHT = FINALWT)

Bloc 2: New variables and conditional editing

Create a variable called INCOME as the sum of WAGES and BENEFITS.

file_var_interest <- file_var_interest %>% mutate(INCOME = WAGES + BENEFITS)
file_var_interest[, c("REC_NUM","INCOME", "WAGES", "BENEFITS")] # can use select() too

# A tibble: 108,982 × 4
   REC_NUM INCOME WAGES BENEFITS
     <int>  <dbl> <dbl>    <dbl>
 1       1   88.0  87.2    0.836
 2       2  107.   97.9    9.20 
 3       3  124.  110.    13.5  
 4       4  104.   99.8    4.47 
 5       5  125.  102.    22.5  
 6       6  214.  107.   107.   
 7       7  165.  101.    63.7  
 8       8  107.  106.     0.746
 9       9  107.   90.7   15.9  
10      10  123.  112.    11.0  
# ℹ 108,972 more rows
…
Northern Canada
Yukon, Northwest Territories, Nunavut

# frequency
table(file_var_analysis$PROV)

   10    11    12    13    24    35    46    47    48    59 
 4959  2572  5213  5368 19671 36239  7447  5950  8587 12976 

file_var_analysis <- file_var_analysis %>% mutate(region = case_when(PROV %in% c(59) ~ "British Columbia", PROV %in% c(48,47,46) ~ "Prairies", PROV %in% c(35) ~"Ontario", PROV %in% c(24) ~"Quebec", PROV %in% c(13,11,12,10) ~ "Atlantic", TRUE~ ""))

file_var_analysis

# A tibble: 108,982 × 7
   REC_NUM  PROV MARSTAT NOC_10 FWEIGHT   SEX region  
     <int> <int>   <int>  <int>   <int> <int> <chr>   
 1       1    48       1     NA     537     2 Prairies
 2       2    13       1      9     106     1 Atlantic
 3       3    24       2     NA     164     2 Quebec  
 4       4    47       1      8     143     1 Prairies
 5       5    46       6      1     218     1 Prairies
 6       6    35       2     NA     575     2 Ontario 
 7       7    24       1     NA     247     2 Quebec  
 8       8    11       1      1      44     1 Atlantic
 9       9    35       1     NA     127     1 Ontario 
10      10    24       5      2     108     1 Quebec  
# ℹ 108,972 more rows
…
table(file_var_interest$rich)

Warning: Unknown or uninitialised column: `rich`.

< table of extent 0 >

Bloc 3: Conditional filtering

Create a file containing only records with variable \(RICH = 1\).

rich_guys <- file_var_interest %>% filter(RICH == 1)
print(rich_guys)

# A tibble: 87,136 × 8
   REC_NUM LFSSTAT EVERWORK PERMTEMP WAGES BENEFITS INCOME  RICH
     <int>   <int>    <int>    <int> <dbl>    <dbl>  <dbl> <dbl>
 1       2       1       NA       NA  97.9    9.20    107.     1
 2       3       4        2       NA 110.    13.5     124.     1
 3       5       1       NA       NA 102.    22.5     125.     1
 4       6       4        2       NA 107.   107.      214.     1
 5       7       4        3       NA 101.    63.7     165.     1
 6       8       1       NA        1 106.     0.746   107.     1
 7       9       4        2       NA  90.7   15.9     107.     1
 8      10       1       NA       NA 112.    11.0     123.     1
 9      11       4        2       NA 106.     2.45    109.     1
10      12       4        3       NA  93.7   20.4     114.     1
# ℹ 87,126 more rows

Create a file containing only married and living in common-law

in_couple <- file_var_analysis %>% filter(MARSTAT %in% c(1,2))
in_couple

# A tibble: 65,688 × 7
   REC_NUM  PROV MARSTAT NOC_10 FWEIGHT   SEX region  
     <int> <int>   <int>  <int>   <int> <int> <chr>   
 1       1    48       1     NA     537     2 Prairies
 2       2    13       1      9     106     1 Atlantic
 3       3    24       2     NA     164     2 Quebec  
 4       4    47       1      8     143     1 Prairies
 5       6    35       2     NA     575     2 Ontario 
 6       7    24       1     NA     247     2 Quebec  
 7       8    11       1      1      44     1 Atlantic
 8       9    35       1     NA     127     1 Ontario 
 9      11    24       1     NA     212     1 Quebec  
10      13    35       1     NA      89     1 Ontario 
# ℹ 65,678 more rows
…
Number of people by marital status and regions.

file_var_analysis %>% group_by(region, MARSTAT) %>% summarize(nrecords = n())

`summarise()` has grouped output by 'region'. You can override using the
`.groups` argument.

# A tibble: 30 × 3
# Groups:   region [5]
   region           MARSTAT nrecords
   <chr>              <int>    <int>
 1 Atlantic               1     9051
 2 Atlantic               2     1969
 3 Atlantic               3     1118
 4 Atlantic               4      465
 5 Atlantic               5      875
 6 Atlantic               6     4634
 7 British Columbia       1     6540
 8 British Columbia       2     1269
 9 British Columbia       3      733
10 British Columbia       4      281
# ℹ 20 more rows
…
